<?xml version="1.0" encoding="UTF-8" standalone="no"?>
<svg xmlns:dc="http://purl.org/dc/elements/1.1/" xmlns:cc="http://creativecommons.org/ns#" xmlns:rdf="http://www.w3.org/1999/02/22-rdf-syntax-ns#" xmlns:svg="http://www.w3.org/2000/svg" xmlns="http://www.w3.org/2000/svg" viewBox="0 0 26.666668 26.666668" height="26.666668" width="26.666668" xml:space="preserve" id="svg2" version="1.1">
    <metadata id="metadata8">
        <rdf:RDF>
            <cc:Work rdf:about="">
                <dc:format>image/svg+xml</dc:format>
                <dc:type rdf:resource="http://purl.org/dc/dcmitype/StillImage" />
            </cc:Work>
        </rdf:RDF>
    </metadata>
    <defs id="defs6" />
    <g transform="matrix(1.3333333,0,0,-1.3333333,0,26.666667)" id="g10">
        <g transform="scale(0.1)" id="g12">
            <path id="path14" style="fill:none;stroke:#808080;stroke-width:13;stroke-linecap:round;stroke-linejoin:round;stroke-miterlimit:10;stroke-dasharray:none;stroke-opacity:1" d="M 11.6562,135.762 C 17.8984,114.457 26.1406,97.3359 60.8945,62.5625 v -0.0039 l 0.0938,-0.0938 c 0.0351,-0.0312 0.0703,-0.0664 0.0703,-0.0664 34.8398,-34.8398 51.9684,-43.0898 73.2964,-49.3359 9.059,-2.6523 27.883,-7.18359 34.856,5.0156 6.969,12.1992 13.57,25.4219 3.113,31.5235 -10.457,6.1015 -32.613,19.5429 -32.613,19.5429 0,0 -9.609,6.6953 -16.941,0.2344 C 115.438,62.918 106.68,53.0859 99.1328,56.5664 92.3242,59.707 84.5664,65.3203 74.1094,75.7773 63.6523,86.2344 58.1719,93.8594 55.0312,100.668 c -3.4843,7.547 6.418,16.238 12.879,23.57 6.4609,7.332 -0.2032,16.91 -0.2032,16.91 0,0 -13.4297,22.145 -19.5273,32.602 -6.1016,10.457 -19.3164,3.844 -31.5156,-3.125 C 4.46484,163.652 9.00391,144.82 11.6562,135.762 Z" />
            <path id="path16" style="fill:none;stroke:#808080;stroke-width:13;stroke-linecap:round;stroke-linejoin:round;stroke-miterlimit:10;stroke-dasharray:none;stroke-opacity:1" d="m 108.312,156.504 c 27.395,0 49.602,-22.207 49.602,-49.602" />
            <path id="path18" style="fill:none;stroke:#808080;stroke-width:13;stroke-linecap:round;stroke-linejoin:round;stroke-miterlimit:10;stroke-dasharray:none;stroke-opacity:1" d="m 101.969,190 c 49.398,0 89.441,-40.043 89.441,-89.441" />
        </g>
    </g>
</svg>
