<?xml version="1.0" encoding="UTF-8" standalone="no"?>
<svg xmlns:dc="http://purl.org/dc/elements/1.1/" xmlns:cc="http://creativecommons.org/ns#" xmlns:rdf="http://www.w3.org/1999/02/22-rdf-syntax-ns#" xmlns:svg="http://www.w3.org/2000/svg" xmlns="http://www.w3.org/2000/svg" viewBox="0 0 26.666668 26.666668" height="26.666668" width="26.666668" xml:space="preserve" id="svg2" version="1.1">
    <metadata id="metadata8">
        <rdf:RDF>
            <cc:Work rdf:about="">
                <dc:format>image/svg+xml</dc:format>
                <dc:type rdf:resource="http://purl.org/dc/dcmitype/StillImage" />
            </cc:Work>
        </rdf:RDF>
    </metadata>
    <defs id="defs6" />
    <g transform="matrix(1.3333333,0,0,-1.3333333,0,26.666667)" id="g10">
        <g transform="scale(0.1)" id="g12">
            <path id="path14" style="fill:none;stroke:#b3b3b3;stroke-width:13;stroke-linecap:round;stroke-linejoin:round;stroke-miterlimit:10;stroke-dasharray:none;stroke-opacity:1" d="M 170,85 H 30 c -5.5234,0 -10,4.4766 -10,10 v 10 c 0,5.523 4.4766,10 10,10 h 140 c 5.523,0 10,-4.477 10,-10 V 95 c 0,-5.5234 -4.477,-10 -10,-10 z" />
        </g>
    </g>
</svg>
