<?xml version="1.0" encoding="UTF-8" standalone="no"?>
<svg xmlns:dc="http://purl.org/dc/elements/1.1/" xmlns:cc="http://creativecommons.org/ns#" xmlns:rdf="http://www.w3.org/1999/02/22-rdf-syntax-ns#" xmlns:svg="http://www.w3.org/2000/svg" xmlns="http://www.w3.org/2000/svg" viewBox="0 0 26.666668 26.666668" height="26.666668" width="26.666668" xml:space="preserve" id="svg2" version="1.1">
    <metadata id="metadata8">
        <rdf:RDF>
            <cc:Work rdf:about="">
                <dc:format>image/svg+xml</dc:format>
                <dc:type rdf:resource="http://purl.org/dc/dcmitype/StillImage" />
            </cc:Work>
        </rdf:RDF>
    </metadata>
    <defs id="defs6" />
    <g transform="matrix(1.3333333,0,0,-1.3333333,0,26.666667)" id="g10">
        <g transform="scale(0.1)" id="g12">
            <path id="path14" style="fill:none;stroke:#808080;stroke-width:13;stroke-linecap:round;stroke-linejoin:round;stroke-miterlimit:10;stroke-dasharray:none;stroke-opacity:1" d="m 10,91.3906 90,90.0004 90,-90.0004" />
            <path id="path16" style="fill:none;stroke:#808080;stroke-width:13;stroke-linecap:round;stroke-linejoin:round;stroke-miterlimit:10;stroke-dasharray:none;stroke-opacity:1" d="m 30.6016,86.1094 v -63.293 c 0,-2.3242 1.8828,-4.207 4.207,-4.207 h 38.3789 c 2.3242,0 4.207,1.8828 4.207,4.207 v 48.2734 c 0,2.3243 1.8828,4.2071 4.2032,4.2071 h 36.8043 c 2.321,0 4.203,-1.8828 4.203,-4.2071 V 22.8164 c 0,-2.3242 1.883,-4.207 4.207,-4.207 h 38.379 c 2.325,0 4.207,1.8828 4.207,4.207 v 63.293" />
        </g>
    </g>
</svg>
