<?xml version="1.0" encoding="UTF-8" standalone="no"?>
<svg xmlns:dc="http://purl.org/dc/elements/1.1/" xmlns:cc="http://creativecommons.org/ns#" xmlns:rdf="http://www.w3.org/1999/02/22-rdf-syntax-ns#" xmlns:svg="http://www.w3.org/2000/svg" xmlns="http://www.w3.org/2000/svg" viewBox="0 0 26.666668 26.666668" height="26.666668" width="26.666668" xml:space="preserve" id="svg2" version="1.1">
    <metadata id="metadata8">
        <rdf:RDF>
            <cc:Work rdf:about="">
                <dc:format>image/svg+xml</dc:format>
                <dc:type rdf:resource="http://purl.org/dc/dcmitype/StillImage" />
            </cc:Work>
        </rdf:RDF>
    </metadata>
    <defs id="defs6" />
    <g transform="matrix(1.3333333,0,0,-1.3333333,0,26.666667)" id="g10">
        <g transform="scale(0.1)" id="g12">
            <path id="path14" style="fill:none;stroke:#6840cc;stroke-width:13;stroke-linecap:round;stroke-linejoin:round;stroke-miterlimit:10;stroke-dasharray:none;stroke-opacity:1" d="m 161.648,143.516 c 0,8.742 -7.086,15.824 -15.824,15.824 H 89.7617 c -2.0976,0 -4.1133,0.836 -5.5937,2.316 l -9.2149,9.215 c -1.4804,1.481 -3.4961,2.317 -5.5937,2.317 H 25.8242 C 17.0859,173.188 10,166.102 10,157.363 V 42.9688 c 0,-8.9219 7.2305,-16.1563 16.1523,-16.1563 v 0 c 8.9219,0 16.1563,7.2344 16.1563,16.1563 v 62.9652 c 0,8.738 7.082,15.824 15.8242,15.824 H 174.176 c 8.738,0 15.824,-7.086 15.824,-15.824 V 42.6367 c 0,-8.7383 -7.086,-15.8242 -15.824,-15.8242 H 69.6719" />
        </g>
    </g>
</svg>
