<?xml version="1.0" encoding="UTF-8" standalone="no"?>
<svg xmlns:dc="http://purl.org/dc/elements/1.1/" xmlns:cc="http://creativecommons.org/ns#" xmlns:rdf="http://www.w3.org/1999/02/22-rdf-syntax-ns#" xmlns:svg="http://www.w3.org/2000/svg" xmlns="http://www.w3.org/2000/svg" viewBox="0 0 25 25" height="25" width="25" xml:space="preserve" version="1.1" id="svg2">
    <metadata id="metadata8">
        <rdf:RDF>
            <cc:Work rdf:about="">
                <dc:format>image/svg+xml</dc:format>
                <dc:type rdf:resource="http://purl.org/dc/dcmitype/StillImage" />
            </cc:Work>
        </rdf:RDF>
    </metadata>
    <defs id="defs6" />
    <g transform="matrix(1.25,0,0,-1.25,0,25)" id="g10">
        <g transform="scale(0.1,0.1)" id="g12">
            <path id="path14" style="fill:none;stroke:#a8a8a8;stroke-width:10;stroke-linecap:butt;stroke-linejoin:miter;stroke-miterlimit:10;stroke-dasharray:none;stroke-opacity:1" d="m 24.4297,144.012 21.0469,0 c 3.6445,0 6.9218,-2.227 8.2422,-5.629 2.0781,-5.344 6.1015,-13.633 9.0546,-20.43 2.918,-6.723 8.5157,-20.16 11.9961,-24.3046 1.7735,-2.1093 5.211,-0.8632 5.211,1.8985 l -0.3086,38.1371 c 0,2.445 -0.5078,4.418 -2.7696,5.347 -2.0898,0.864 -4.6093,0.707 -4.6093,2.032 l 0,0 c 0,2.441 6.2109,4.425 11.9258,4.425 l 17.5822,0 c 5.703,0 10.328,-4.625 10.328,-10.328 l 0,-25.656 c 0,-5.473 6.793,-8 10.371,-3.859 2.563,2.964 5.145,6.355 7.148,9.875 4.793,8.429 9.477,19.433 11.247,23.718 0.453,1.106 1.527,1.825 2.722,1.825 l 28.598,0.089 c 7.043,0 8.394,-3.289 5.152,-8.777 -2.906,-4.922 -6.558,-11.035 -10.652,-16.855 -4.832,-6.875 -9.129,-12.45 -12.742,-17.4887 -1.946,-2.7188 -1.942,-6.3321 0.632,-8.4649 4.379,-3.6289 9.961,-9.0625 13.77,-13.543 3.27,-3.8476 7.879,-9.3086 10.836,-13.5976 2.023,-2.9375 -0.082,-6.9336 -3.648,-6.9336 l -29.551,0 c -1.864,0 -3.66,0.707 -5.028,1.9766 l -19.937,18.5703 c -2.832,2.6367 -7.445,0.6289 -7.445,-3.2383 l 0,-10.4492 c 0,-4.0157 -3.211,-7.3203 -7.227,-7.375 -13.6172,-0.1875 -39.6875,-6.5 -60.4531,33.8945 -13.6055,26.4649 -22.0196,41.2109 -25.5156,48.8709 -1.3399,2.934 0.7968,6.27 4.0234,6.27 z" />
        </g>
    </g>
</svg>
