<?xml version="1.0" encoding="UTF-8" standalone="no"?>
<svg xmlns:dc="http://purl.org/dc/elements/1.1/" xmlns:cc="http://creativecommons.org/ns#" xmlns:rdf="http://www.w3.org/1999/02/22-rdf-syntax-ns#" xmlns:svg="http://www.w3.org/2000/svg" xmlns="http://www.w3.org/2000/svg" viewBox="0 0 26.666668 26.666668" height="26.666668" width="26.666668" xml:space="preserve" id="svg2" version="1.1">
    <metadata id="metadata8">
        <rdf:RDF>
            <cc:Work rdf:about="">
                <dc:format>image/svg+xml</dc:format>
                <dc:type rdf:resource="http://purl.org/dc/dcmitype/StillImage" />
            </cc:Work>
        </rdf:RDF>
    </metadata>
    <defs id="defs6" />
    <g transform="matrix(1.3333333,0,0,-1.3333333,0,26.666667)" id="g10">
        <g transform="scale(0.1)" id="g12">
            <path id="path14" style="fill:none;stroke:#a8a8a8;stroke-width:10;stroke-linecap:butt;stroke-linejoin:miter;stroke-miterlimit:10;stroke-dasharray:none;stroke-opacity:1" d="m 164.941,81.8203 c 1.543,5.6172 2.434,11.5 2.434,17.6055 0,36.6682 -29.723,66.3902 -66.387,66.3902 -6.0192,0 -11.82,-0.875 -17.363,-2.375 -5.9102,5.551 -13.8398,8.973 -22.5898,8.973 C 42.793,172.414 28,157.625 28,139.379 c 0,-8.75 3.4258,-16.68 8.9727,-22.59 -1.5,-5.543 -2.375,-11.344 -2.375,-17.3632 0,-36.6641 29.7265,-66.3867 66.3903,-66.3867 6.106,0 11.989,0.8945 17.606,2.4375 5.617,-4.4102 12.676,-7.0625 20.371,-7.0625 18.246,0 33.035,14.7929 33.035,33.039 0,7.6914 -2.652,14.7539 -7.059,20.3672 z" />
            <g transform="scale(10)" id="g16">
                <text id="text20" style="font-variant:normal;font-weight:bold;font-size:11.19999981px;font-family:Calibri;-inkscape-font-specification:Calibri-Bold;writing-mode:lr-tb;fill:#a8a8a8;fill-opacity:1;fill-rule:nonzero;stroke:none" transform="matrix(1,0,0,-1,7.35352,6.18633)">
                    <tspan id="tspan18" y="0" x="0">S</tspan>
                </text>
            </g>
        </g>
    </g>
</svg>
