<?xml version="1.0" encoding="UTF-8" standalone="no"?>
<svg xmlns:dc="http://purl.org/dc/elements/1.1/" xmlns:cc="http://creativecommons.org/ns#" xmlns:rdf="http://www.w3.org/1999/02/22-rdf-syntax-ns#" xmlns:svg="http://www.w3.org/2000/svg" xmlns="http://www.w3.org/2000/svg" viewBox="0 0 25 25" height="25" width="25" xml:space="preserve" version="1.1" id="svg2">
    <metadata id="metadata8">
        <rdf:RDF>
            <cc:Work rdf:about="">
                <dc:format>image/svg+xml</dc:format>
                <dc:type rdf:resource="http://purl.org/dc/dcmitype/StillImage" />
            </cc:Work>
        </rdf:RDF>
    </metadata>
    <defs id="defs6" />
    <g transform="matrix(1.25,0,0,-1.25,0,25)" id="g10">
        <g transform="scale(0.1,0.1)" id="g12">
            <path id="path14" style="fill:#fff;fill-opacity:1;fill-rule:nonzero;stroke:none" d="m 147.379,96.9414 c -0.375,-0.9062 -0.934,-1.707 -1.598,-2.4101 -0.054,-0.0586 -0.07,-0.1329 -0.129,-0.1915 l -40,-39.9921 c -1.558,-1.5664 -3.601,-2.3438 -5.652,-2.3438 -2.0508,0 -4.0898,0.7774 -5.6523,2.3438 -3.125,3.125 -3.125,8.1796 0,11.3046 l 26.3403,26.3516 -60.688,0 c -4.4141,0 -7.9961,3.5781 -7.9961,7.9961 0,4.418 3.582,7.996 7.9961,7.996 l 60.684,0 -26.3363,26.344 c -3.125,3.125 -3.125,8.195 0,11.32 3.125,3.113 8.1793,3.113 11.3043,0 l 40,-40 c 0.059,-0.058 0.075,-0.137 0.129,-0.195 0.664,-0.699 1.223,-1.5 1.598,-2.406 0.812,-1.957 0.812,-4.1606 0,-6.1176 z M 100,200 C 44.7734,200 0,155.23 0,100 0,44.7734 44.7734,0 100,0 c 55.227,0 100,44.7734 100,100 0,55.23 -44.773,100 -100,100" />
        </g>
    </g>
</svg>
