<?xml version="1.0" encoding="UTF-8" standalone="no"?>
<svg xmlns:dc="http://purl.org/dc/elements/1.1/" xmlns:cc="http://creativecommons.org/ns#" xmlns:rdf="http://www.w3.org/1999/02/22-rdf-syntax-ns#" xmlns:svg="http://www.w3.org/2000/svg" xmlns="http://www.w3.org/2000/svg" viewBox="0 0 75 75" height="75" width="75" xml:space="preserve" version="1.1" id="svg2">
    <metadata id="metadata8">
        <rdf:RDF>
            <cc:Work rdf:about="">
                <dc:format>image/svg+xml</dc:format>
                <dc:type rdf:resource="http://purl.org/dc/dcmitype/StillImage" />
            </cc:Work>
        </rdf:RDF>
    </metadata>
    <defs id="defs6" />
    <g transform="matrix(1.25,0,0,-1.25,0,75)" id="g10">
        <g transform="scale(0.1,0.1)" id="g12">
            <path id="path14" style="fill:none;stroke:#ffffff;stroke-width:20;stroke-linecap:round;stroke-linejoin:round;stroke-miterlimit:10;stroke-dasharray:none;stroke-opacity:1" d="m 312.77,162.629 -95.532,-60.867 c -5.234,-3.3362 -12.179,-1.7972 -15.515,3.437 L 68.8984,313.676 c -3.3359,5.23 -1.7968,12.176 3.4375,15.512 l 81.1411,51.695" />
            <path id="path16" style="fill:none;stroke:#ffffff;stroke-width:20;stroke-linecap:round;stroke-linejoin:round;stroke-miterlimit:10;stroke-dasharray:none;stroke-opacity:1" d="m 447.457,349.586 38.551,-63.262 c 3.332,-5.23 1.793,-12.176 -3.442,-15.511 L 350.41,186.609" />
            <path id="path18" style="fill:none;stroke:#ffffff;stroke-width:20;stroke-linecap:round;stroke-linejoin:round;stroke-miterlimit:10;stroke-dasharray:none;stroke-opacity:1" d="m 256.527,446.543 81.141,51.695 c 5.23,3.336 12.18,1.797 15.512,-3.437 l 18.258,-27.133" />
            <path id="path20" style="fill:none;stroke:#ffffff;stroke-width:20;stroke-linecap:round;stroke-linejoin:round;stroke-miterlimit:10;stroke-dasharray:none;stroke-opacity:1" d="m 203.031,303.102 -63.015,98.906 103.054,65.66 63.016,-98.91" />
            <path id="path22" style="fill:none;stroke:#ffffff;stroke-width:20;stroke-linecap:round;stroke-linejoin:round;stroke-miterlimit:10;stroke-dasharray:none;stroke-opacity:1" d="m 306.086,368.758 -40.074,6.109 -11.407,-38.906 -49.937,21.473 -1.637,-54.332" />
            <path id="path24" style="fill:none;stroke:#ffffff;stroke-width:20;stroke-linecap:round;stroke-linejoin:round;stroke-miterlimit:10;stroke-dasharray:none;stroke-opacity:1" d="m 309.348,284.793 89.429,56.98 32.2,-50.539 -89.43,-56.98 -32.199,50.539 z" />
            <path id="path26" style="fill:none;stroke:#ffffff;stroke-width:20;stroke-linecap:round;stroke-linejoin:round;stroke-miterlimit:10;stroke-dasharray:none;stroke-opacity:1" d="m 157.66,100 148.426,0" />
            <path id="path28" style="fill:none;stroke:#ffffff;stroke-width:20;stroke-linecap:round;stroke-linejoin:round;stroke-miterlimit:10;stroke-dasharray:none;stroke-opacity:1" d="m 350.41,186.609 114.137,0 c 10.598,0 19.191,-11.054 19.191,-24.691 l 0,0 c 0,-13.641 -8.593,-24.695 -19.191,-24.695 l -188.086,0" />
            <path id="path30" style="fill:none;stroke:#ffffff;stroke-width:20;stroke-linecap:round;stroke-linejoin:round;stroke-miterlimit:10;stroke-dasharray:none;stroke-opacity:1" d="m 371.438,467.668 101.281,0 c 10.824,0 19.679,-8.859 19.679,-19.684 l 0,0 c 0,-10.824 -8.855,-19.679 -19.679,-19.679 l 0,0" />
            <path id="path32" style="fill:none;stroke:#ffffff;stroke-width:20;stroke-linecap:round;stroke-linejoin:round;stroke-miterlimit:10;stroke-dasharray:none;stroke-opacity:1" d="m 513.184,388.945 -109.383,0 c -10.824,0 -19.684,8.856 -19.684,19.68 l 0,0 c 0,10.824 8.86,19.68 19.684,19.68 l 65.933,0" />
            <path id="path34" style="fill:none;stroke:#ffffff;stroke-width:20;stroke-linecap:round;stroke-linejoin:round;stroke-miterlimit:10;stroke-dasharray:none;stroke-opacity:1" d="m 513.184,388.945 c 10.824,0 19.679,-8.855 19.679,-19.679 l 0,0 c 0,-10.825 -8.855,-19.68 -19.679,-19.68 l -65.727,0" />
        </g>
    </g>
</svg>
